<svg width="118" height="118" viewBox="0 0 118 118" fill="none" xmlns="http://www.w3.org/2000/svg">
<g filter="url(#filter0_d_2_5825)">
<rect x="4" y="1" width="110" height="110" rx="8" fill="white"/>
</g>
<path d="M58.9912 49.8668C59.0263 49.8668 59.0614 49.9019 59.0965 49.9194C68.3623 56.974 84.244 74.4176 79.4005 79.3312C73.9428 84.1045 66.818 87.0001 58.9912 87.0001C51.1645 87.0001 44.0396 84.1045 38.582 79.3312C33.756 74.4 49.6202 56.9565 58.886 49.9019C58.921 49.8843 58.9561 49.8668 58.9912 49.8668Z" fill="#107C10"/>
<path d="M75.1362 29.5276C70.398 26.7198 65.2562 25 58.9913 25C52.7263 25 47.5845 26.7198 42.8463 29.5276C42.7937 29.5627 42.7761 29.6329 42.7937 29.6855C42.8112 29.7382 42.8814 29.7557 42.9516 29.7382C48.9533 28.4396 58.0787 33.6165 58.9386 34.1429C58.9562 34.1605 58.9737 34.1605 59.0088 34.1605C59.0439 34.1605 59.0615 34.1429 59.079 34.1429C59.9389 33.6165 69.0643 28.4396 75.066 29.7382C75.1362 29.7557 75.1888 29.7382 75.2239 29.6855C75.2239 29.6329 75.2064 29.5627 75.1362 29.5276Z" fill="#107C10"/>
<path d="M37.3009 33.8971C37.2482 33.9322 37.2131 33.9673 37.1605 34.0024C31.5098 39.6181 28 47.3922 28 55.9911C28 63.0457 30.3691 69.5563 34.3351 74.7683C34.3702 74.821 34.4404 74.8561 34.4931 74.821C34.5457 74.7859 34.5457 74.7157 34.5282 74.6631C32.1591 67.3627 44.2502 49.6384 50.48 42.2153C50.4976 42.1977 50.5151 42.1626 50.5151 42.1275C50.5151 42.0749 50.4976 42.0573 50.4625 42.0222C41.0388 32.6336 37.8273 33.6339 37.3009 33.8971Z" fill="#107C10"/>
<path d="M67.5024 42.0399C67.4673 42.0575 67.4497 42.0926 67.4497 42.1452C67.4497 42.1803 67.4673 42.2154 67.4848 42.233C73.7322 49.6561 85.8233 67.3629 83.4542 74.6632C83.4367 74.7158 83.4367 74.786 83.4893 74.8211C83.542 74.8562 83.6122 74.8211 83.6473 74.7685C87.6308 69.5565 89.9824 63.0459 89.9824 55.9913C89.9824 47.3923 86.4726 39.6007 80.8219 33.985C80.7868 33.9499 80.7342 33.9148 80.6815 33.8797C80.1726 33.6341 76.9612 32.6338 67.5024 42.0399Z" fill="#107C10"/>
<defs>
<filter id="filter0_d_2_5825" x="0" y="0" width="118" height="118" filterUnits="userSpaceOnUse" color-interpolation-filters="sRGB">
<feFlood flood-opacity="0" result="BackgroundImageFix"/>
<feColorMatrix in="SourceAlpha" type="matrix" values="0 0 0 0 0 0 0 0 0 0 0 0 0 0 0 0 0 0 127 0" result="hardAlpha"/>
<feOffset dy="3"/>
<feGaussianBlur stdDeviation="2"/>
<feColorMatrix type="matrix" values="0 0 0 0 0 0 0 0 0 0 0 0 0 0 0 0 0 0 0.12 0"/>
<feBlend mode="normal" in2="BackgroundImageFix" result="effect1_dropShadow_2_5825"/>
<feBlend mode="normal" in="SourceGraphic" in2="effect1_dropShadow_2_5825" result="shape"/>
</filter>
</defs>
</svg>
